<?xml version="1.0" encoding="UTF-8"?>
<!DOCTYPE suite SYSTEM "https://testng.org/testng-1.0.dtd">
<suite verbose="0" name="Failed suite [Command line suite]">
  <test thread-count="5" verbose="0" name="Command line test(failed)">
    <classes>
      <class name="scripts._03_TGLocatorsTest">
        <methods>
          <include name="setUp"/>
          <include name="tearDown"/>
          <include name="setPage"/>
          <include name="validateAllLinks"/>
        </methods>
      </class> <!-- scripts._03_TGLocatorsTest -->
      <class name="scripts._05_FacebookTest">
        <methods>
          <include name="setUp"/>
          <include name="tearDown"/>
          <include name="validateFacebookLoginForm"/>
          <include name="validateFacebookInvalidLoginAttempt"/>
          <include name="setPage"/>
        </methods>
      </class> <!-- scripts._05_FacebookTest -->
      <class name="scripts._06_WikiTest">
        <methods>
          <include name="setUp"/>
          <include name="tearDown"/>
          <include name="validateWikiSearch2"/>
          <include name="setPage"/>
          <include name="validateWikiSearch1"/>
        </methods>
      </class> <!-- scripts._06_WikiTest -->
      <class name="scripts._07_TGDynamicElementsTest">
        <methods>
          <include name="setUp"/>
          <include name="tearDown"/>
          <include name="setPage"/>
          <include name="validateDynamicElementBox2"/>
          <include name="validateDynamicElementBox1"/>
          <include name="validateDynamicElementBoxes"/>
        </methods>
      </class> <!-- scripts._07_TGDynamicElementsTest -->
      <class name="scripts._10_TGRadioButtonsTest">
        <methods>
          <include name="radioButtonsTest"/>
          <include name="setUp"/>
          <include name="tearDown"/>
          <include name="setPage"/>
          <include name="validatePracticeMore"/>
        </methods>
      </class> <!-- scripts._10_TGRadioButtonsTest -->
      <class name="scripts._02_AppleTest">
        <methods>
          <include name="setup"/>
          <include name="tearDown"/>
          <include name="validateTitleAndURL"/>
        </methods>
      </class> <!-- scripts._02_AppleTest -->
      <class name="scripts._08_TGWaitsTest">
        <methods>
          <include name="setUp"/>
          <include name="waitForBlueBox"/>
          <include name="tearDown"/>
          <include name="setPage"/>
          <include name="waitForRedBox"/>
        </methods>
      </class> <!-- scripts._08_TGWaitsTest -->
      <class name="scripts._18_TGSortableTableTest">
        <methods>
          <include name="setUp"/>
          <include name="tearDown"/>
          <include name="setPage"/>
          <include name="validateSortAscByQuantity"/>
        </methods>
      </class> <!-- scripts._18_TGSortableTableTest -->
      <class name="scripts._12_TGAlertsTest">
        <methods>
          <include name="setUp"/>
          <include name="tearDown"/>
          <include name="setPage"/>
          <include name="warningAlert"/>
        </methods>
      </class> <!-- scripts._12_TGAlertsTest -->
      <class name="scripts._14_MultipleWindowsTest">
        <methods>
          <include name="setUp"/>
          <include name="tearDown"/>
          <include name="validateTheAppleNavigation"/>
          <include name="setPage"/>
          <include name="validateTheMicrosoftNavigation"/>
          <include name="validateTheLinkURLs"/>
          <include name="validateTheTeslaNavigation"/>
        </methods>
      </class> <!-- scripts._14_MultipleWindowsTest -->
      <class name="scripts._13_IFrameTest">
        <methods>
          <include name="setPage"/>
          <include name="setUp"/>
          <include name="tearDown"/>
          <include name="validateTheParagraph"/>
          <include name="validateTheFormSubmission"/>
        </methods>
      </class> <!-- scripts._13_IFrameTest -->
      <class name="scripts._11_TGDropdownsTest">
        <methods>
          <include name="setUp"/>
          <include name="tearDown"/>
          <include name="productDeliveryTest"/>
          <include name="productColorTest"/>
          <include name="productDropdownTest"/>
          <include name="setPage"/>
          <include name="dropdownTestCase"/>
        </methods>
      </class> <!-- scripts._11_TGDropdownsTest -->
      <class name="scripts._17_TGStaticTableTest">
        <methods>
          <include name="validateEachCell"/>
          <include name="setUp"/>
          <include name="tearDown"/>
          <include name="validateTableHeader"/>
          <include name="validateFirstRow"/>
          <include name="setPage"/>
          <include name="validateLastColumn"/>
        </methods>
      </class> <!-- scripts._17_TGStaticTableTest -->
      <class name="scripts._04_TGLocatorsTest">
        <methods>
          <include name="setUp"/>
          <include name="validateTheHeader"/>
          <include name="tearDown"/>
          <include name="setPage"/>
          <include name="validateAutomationTools"/>
          <include name="validateListHeaders"/>
          <include name="validateLanguages"/>
        </methods>
      </class> <!-- scripts._04_TGLocatorsTest -->
      <class name="scripts._09_TGCheckboxTest">
        <methods>
          <include name="setUp"/>
          <include name="tearDown"/>
          <include name="setPage"/>
          <include name="validateAppleAndMicrosoft"/>
        </methods>
      </class> <!-- scripts._09_TGCheckboxTest -->
    </classes>
  </test> <!-- Command line test(failed) -->
</suite> <!-- Failed suite [Command line suite] -->
